C:\Users\Anh\eclipse-workspace\wizeline\src\test\java\stepDefinitions\Hooks.java
C:\Users\Anh\eclipse-workspace\wizeline\src\test\java\stepDefinitions\RoadMapsPageSteps.java
C:\Users\Anh\eclipse-workspace\wizeline\src\test\java\runners\TestRunner.java
C:\Users\Anh\eclipse-workspace\wizeline\src\test\java\stepDefinitions\LoginPageSteps.java
C:\Users\Anh\eclipse-workspace\wizeline\src\test\java\stepDefinitions\OrgListPageSteps.java
